<svg width="24" height="24" viewBox="0 0 24 24" fill="none" xmlns="http://www.w3.org/2000/svg">
<path d="M18.3027 3.98312H4.93773C3.88326 3.98312 3.02844 4.83794 3.02844 5.89241V19.2574C3.02844 20.3119 3.88326 21.1667 4.93773 21.1667H18.3027C19.3572 21.1667 20.212 20.3119 20.212 19.2574V5.89241C20.212 4.83794 19.3572 3.98312 18.3027 3.98312Z" stroke="#464646" stroke-width="2" stroke-linecap="round" stroke-linejoin="round"/>
<path d="M15.4388 2.07382V5.89239" stroke="#464646" stroke-width="2" stroke-linecap="round" stroke-linejoin="round"/>
<path d="M7.80164 2.07382V5.89239" stroke="#464646" stroke-width="2" stroke-linecap="round" stroke-linejoin="round"/>
<path d="M3.02844 9.71097H20.212" stroke="#464646" stroke-width="2" stroke-linecap="round" stroke-linejoin="round"/>
</svg>
